User profiles in smart charging • flextools
…
Once we have our own model, we can simulate EV sessions for three
different days as example:

set.seed(12345)
ev_sessions <- simulate_sessions(
  evmodel = ev_model, 
  sessions_day = tibble(time_cycle = c("Workdays", "Weekends"), n_sessions = c(10, 10)),
  user_profiles = NULL,
  charging_powers = tibble(power = 3.7, ratio = 1), 
  dates = seq.Date(from = today(), to = today()+days(2), by = "day"), 
  resolution = 15
)

## # A tibble: 30 × 11
##    Session Timecycle Profile  ConnectionStartDateTime ConnectionEndDateTime
##    <chr>   <chr>     <chr>    <dttm>                  <dttm>               
##  1 S1      Workdays  Visit    2024-08-08 04:00:00     2024-08-08 05:25:00  
##  2 S2      Workdays  Visit    2024-08-08 07:30:00     2024-08-08 10:46:00  
##  3 S3      Workdays  Worktime 2024-08-08 08:15:00     2024-08-08 16:30:00  
##  4 S4      Workdays  Worktime 2024-08-08 08:30:00     2024-08-08 16:41:00  
##  5 S5      Workdays  Worktime 2024-08-08 08:30:00     2024-08-08 17:46:00  
##  6 S6      Workdays  Worktime 2024-08-08 09:30:00     2024-08-08 17:29:00  
##  7 S7      Workdays  Visit    2024-08-08 10:00:00     2024-08-08 19:28:00  
##  8 S8      Workdays  Visit    2024-08-08 10:30:00     2024-08-08 16:21:00  
##  9 S9      Workdays  Visit    2024-08-08 10:45:00     2024-08-08 18:32:00  
## 10 S10     Workdays  Visit    2024-08-08 16:30:00     2024-08-08 18:08:00  
## # ℹ 20 more rows
## # ℹ 6 more variables: ChargingStartDateTime <dttm>, ChargingEndDateTime <dttm>,
## #   Power <dbl>, Energy <dbl>, ConnectionHours <dbl>, ChargingHours <dbl>
…
