User profiles in smart charging • flextools
…
Once we have our own model, we can simulate EV sessions for three
different days as example:

set.seed(1234)
ev_sessions <- simulate_sessions(
  evmodel = ev_model, 
  sessions_day = tibble(time_cycle = c("Workdays", "Weekends"), n_sessions = c(10, 10)),
  user_profiles = NULL,
  charging_powers = tibble(power = 3.7, ratio = 1), 
  dates = seq.Date(from = dmy("05-08-2024"), to = dmy("05-08-2024")+days(2), by = "day"), 
  resolution = 15
)

## # A tibble: 21 × 11
##    Session Timecycle Profile  ConnectionStartDateTime ConnectionEndDateTime
##    <chr>   <chr>     <chr>    <dttm>                  <dttm>               
##  1 S1      Workdays  Worktime 2024-08-05 08:45:00     2024-08-05 16:58:00  
##  2 S2      Workdays  Worktime 2024-08-05 09:15:00     2024-08-05 17:04:00  
##  3 S3      Workdays  Worktime 2024-08-05 09:30:00     2024-08-05 17:37:00  
##  4 S4      Workdays  Visit    2024-08-05 09:45:00     2024-08-05 12:29:00  
##  5 S5      Workdays  Worktime 2024-08-05 09:45:00     2024-08-05 17:22:00  
##  6 S6      Workdays  Visit    2024-08-05 10:00:00     2024-08-05 14:29:00  
##  7 S7      Workdays  Visit    2024-08-05 10:45:00     2024-08-05 17:46:00  
##  8 S8      Workdays  Visit    2024-08-05 12:45:00     2024-08-05 18:29:00  
##  9 S9      Workdays  Visit    2024-08-05 14:45:00     2024-08-05 18:59:00  
## 10 S10     Workdays  Visit    2024-08-05 20:00:00     2024-08-05 23:02:00  
## # ℹ 11 more rows
## # ℹ 6 more variables: ChargingStartDateTime <dttm>, ChargingEndDateTime <dttm>,
## #   Power <dbl>, Energy <dbl>, ConnectionHours <dbl>, ChargingHours <dbl>
…
